index
…
Rob

11/30/2017

R Markdown

This is an R Markdown document. Markdown is a simple formatting syntax for authoring HTML, PDF, and MS Word documents. For more details on using R Markdown see http://rmarkdown.rstudio.com.

When you click the Knit button a document will be generated that includes both content as well as the output of any embedded R code chunks within the document. You can embed an R code chunk like this:

# data()
mpg

## # A tibble: 234 x 11
##    manufacturer      model displ  year   cyl      trans   drv   cty   hwy
##           <chr>      <chr> <dbl> <int> <int>      <chr> <chr> <int> <int>
##  1         audi         a4   1.8  1999     4   auto(l5)     f    18    29
##  2         audi         a4   1.8  1999     4 manual(m5)     f    21    29
##  3         audi         a4   2.0  2008     4 manual(m6)     f    20    31
##  4         audi         a4   2.0  2008     4   auto(av)     f    21    30
##  5         audi         a4   2.8  1999     6   auto(l5)     f    16    26
##  6         audi         a4   2.8  1999     6 manual(m5)     f    18    26
##  7         audi         a4   3.1  2008     6   auto(av)     f    18    27
##  8         audi a4 quattro   1.8  1999     4 manual(m5)     4    18    26
##  9         audi a4 quattro   1.8  1999     4   auto(l5)     4    16    25
## 10         audi a4 quattro   2.0  2008     4 manual(m6)     4    20    28
## # ... with 224 more rows, and 2 more variables: fl <chr>, class <chr>
…
